<svg width="100%" height="100%" xmlns="http://www.w3.org/2000/svg"
     xmlns:xlink="http://www.w3.org/1999/xlink">

<text x="50%" y="50%" style="font-family:sans-serif; font-size:32; font-weight:bold; text-anchor:middle; fill:rgb(153,153,153);">Faites glisser les blocs ici</text>
</svg>
